{
    "KPlugin": {
        "BugReportUrl": "https://bugs.kde.org/enter_bug.cgi?product=systemsettings&component=kcm_netpref",
        "Description": "Configure generic network preferences, like timeout values",
        "Description[ar]": "يضبط تفضيلات الشبكة العامة مثل قيم المهلات الإتصالات",
        "Description[bg]": "Настройване на общите мрежови параметри",
        "Description[ca@valencia]": "Configureu les preferències genèriques de la xarxa, com ara els valors dels temps d'espera",
        "Description[ca]": "Configuració de les preferències genèriques de la xarxa, com ara els valors dels temps d'espera",
        "Description[cs]": "Nastavení obecných předvoleb sítě, např. časových limitů",
        "Description[de]": "Einfache Netzwerkeinstellungen vornehmen wie z. B. Zeitüberschreitungen",
        "Description[en_GB]": "Configure generic network preferences, like timeout values",
        "Description[eo]": "Agordi ĝeneralajn retprefereojn, kiel ekz. tempolimvaloroj",
        "Description[es]": "Configurar las preferencias de red genéricas, como los valores de espera",
        "Description[eu]": "Konfiguratu sarerako hobespen orokorrak, denbora-muga balioak, besteak beste",
        "Description[fi]": "Yleiset verkkoasetukset",
        "Description[fr]": "Configurer les préférences génériques du réseau, comme les valeurs des délais impartis",
        "Description[gl]": "Configurar as preferencias xenéricas de rede, como os tempos límite",
        "Description[ia]": "Configura le preferentia de rete generic, como valores pro expirationes de tempore",
        "Description[is]": "Grunnstilla almennar netstillingar, eins og hámarkstíma",
        "Description[it]": "Configura le preferenze di rete generiche, come i tempi di scadenza",
        "Description[ka]": "ქსელის ზოგადი პარამეტრების მორგება",
        "Description[ko]": "제한 시간 값 같이 일반 네트워크에서 기본이 되는 값 설정하기",
        "Description[nl]": "Instellen van algemene netwerkvoorkeuren, zoals tijdslimietwaarden",
        "Description[nn]": "Oppsett av generelle nettverksinnstillingar, som for eksempel tidsgrenser",
        "Description[pl]": "Ustawienia niskopoziomowych ustawień sieciowych np. limitu czasu",
        "Description[sl]": "Konfiguriraj splošne preference omrežja ko npr. časovne omejitve",
        "Description[tr]": "Zaman aşımı değerleri gibi genel ağ tercihlerini yapılandır",
        "Description[uk]": "Налаштування загальних параметрів мережі, зокрема значень тайм-аутів",
        "Description[x-test]": "xxConfigure generic network preferences, like timeout valuesxx",
        "Description[zh_TW]": "調整一般網路設定，例如逾時值",
        "Icon": "preferences-system-network-connection",
        "Name": "Connection Preferences",
        "Name[ar]": "تفضيلات الاتّصال",
        "Name[bg]": "Настройване на връзката",
        "Name[ca@valencia]": "Preferències de connexió",
        "Name[ca]": "Preferències de connexió",
        "Name[cs]": "Předvolby připojení",
        "Name[de]": "Verbindungseinstellungen",
        "Name[en_GB]": "Connection Preferences",
        "Name[eo]": "Preferoj pri Konektado",
        "Name[es]": "Preferencias de la conexión",
        "Name[eu]": "Konexio hobespenak",
        "Name[fi]": "Yhteysasetukset",
        "Name[fr]": "Préférences de connexion",
        "Name[gl]": "Configuración da conexión",
        "Name[ia]": "Preferentias de connexion",
        "Name[is]": "Kjörstillingar tengingar",
        "Name[it]": "Preferenze delle connessioni",
        "Name[ka]": "კავშირის პარამეტრები",
        "Name[ko]": "연결 설정",
        "Name[nl]": "Verbindingsvoorkeuren",
        "Name[nn]": "Tilkoplingsinnstillingar",
        "Name[pl]": "Ustawienia połączeń",
        "Name[sl]": "Preference povezave",
        "Name[tr]": "Bağlantı Tercihleri",
        "Name[uk]": "Параметри з'єднання",
        "Name[x-test]": "xxConnection Preferencesxx",
        "Name[zh_TW]": "連線設定"
    },
    "X-DocPath": "kcontrol5/netpref/index.html",
    "X-KDE-Keywords": "timeout,iopref,netpref,network preferences,ftp",
    "X-KDE-Keywords[ar]": "وقت المهلة,iopref,netpref,تفضيلات الشبكة,ftp",
    "X-KDE-Keywords[az]": "timeout,iopref,netpref,network preferences,ftp",
    "X-KDE-Keywords[be@latin]": "termin čakannia,iopref,netpref,nalady sietki,ftp",
    "X-KDE-Keywords[be]": "тэрмін чакання,iopref,netpref,налады сеткі,ftp",
    "X-KDE-Keywords[bg]": "timeout,iopref,netpref,network preferences,ftp",
    "X-KDE-Keywords[bs]": "tajmaut,iopref,netpref,mrežne preferencije,ftp",
    "X-KDE-Keywords[ca@valencia]": "temps d'espera,iopref,netpref,preferències de xarxa,ftp",
    "X-KDE-Keywords[ca]": "temps d'espera,iopref,netpref,preferències de xarxa,ftp",
    "X-KDE-Keywords[cy]": "goramser,iopref,netpref,dewisiadau rhwydwaith, ftp",
    "X-KDE-Keywords[da]": "tidsudløb,timeout,iopref,netpref,netværksindstillinger,ftp",
    "X-KDE-Keywords[de]": "Zeitlimit,Zeitüberschreitung,Netzwerkeinstellungen,Ein-/Ausgabemodul-Einstellungen",
    "X-KDE-Keywords[el]": "χρονικό όριο,iopref,netpref,προτιμήσεις δικτύου,ftp",
    "X-KDE-Keywords[en_GB]": "timeout,iopref,netpref,network preferences,ftp",
    "X-KDE-Keywords[es]": "tiempo de espera,iopref,netpref,preferencias de red,ftp",
    "X-KDE-Keywords[et]": "aegumine,iopref,netpref,võrk,eelistused,ftp",
    "X-KDE-Keywords[eu]": "denbora muga,iopref,netpref,sare hobespenak,ftp",
    "X-KDE-Keywords[fi]": "aikakatkaisu,iopref,netpref,verkkoasetukset,ftp",
    "X-KDE-Keywords[fr]": "délai dépassé, iopref, netpref, paramètres réseau, ftp",
    "X-KDE-Keywords[gd]": "timeout,iopref,netpref,network preferences,ftp,ùine,falbh,falbhaidh an ùine,roghainnean an lìonraidh,lìonra",
    "X-KDE-Keywords[gl]": "tempo límite,iopref,netpref,rede,preferencias,ftp",
    "X-KDE-Keywords[hu]": "időtúllépés,iopref,netpref,hálózati beállítások,ftp",
    "X-KDE-Keywords[ia]": "expiration,iopref,prefderete,rete,preferentias,ftp",
    "X-KDE-Keywords[id]": "batas waktu,iopref,netpref,preferensi jaringan,ftp",
    "X-KDE-Keywords[ie]": "timeout,iopref,netpref,preferenties del rete,ftp",
    "X-KDE-Keywords[is]": "tímalokun,iopref,netpref,kjörstillingar nets,ftp",
    "X-KDE-Keywords[it]": "scadenza,iopref,netpref,preferenze di rete,ftp",
    "X-KDE-Keywords[ka]": "timeout,iopref,netpref,network preferences,ftp",
    "X-KDE-Keywords[ko]": "timeout,iopref,netpref,network preferences,ftp,시간,시간 초과,네트워크 설정",
    "X-KDE-Keywords[lt]": "skirtasis laikas,skirtas laikas,laiko limitas,laukimo laikas,tinklo nuostatos,tinklo nustatymai,tinklo parinktys,ftp",
    "X-KDE-Keywords[my]": "timeout,iopref,netpref,network preferences,ftp",
    "X-KDE-Keywords[nb]": "tidsavbrudd,iopref,netpref,nettverksoppsett,ftp",
    "X-KDE-Keywords[nl]": "timeout,iopref,netpref,netwerk voorkeuren,ftp",
    "X-KDE-Keywords[nn]": "tidsavbrot,iopref,netpref,nettverksinnstillinger,ftp",
    "X-KDE-Keywords[pa]": "ਟਾਈਮਆਉਟ,ਸਮਾਂ-ਸਮਾਪਤ,ਪਸੰਦ,ਤਰਜੀਹਾਂ,ਐਫਟੀਪੀ,ਨੈੱਟਵਰਕ",
    "X-KDE-Keywords[pl]": "czas oczekiwania,iopref,netpref,ustawienia sieci,ftp",
    "X-KDE-Keywords[pt]": "tempo-limite,iopref,netpref,preferências da rede,ftp",
    "X-KDE-Keywords[pt_BR]": "tempo-limite,iopref,netpref,preferências de rede,ftp",
    "X-KDE-Keywords[ro]": "expirare,iopref,netpref,preferințe rețea,ftp",
    "X-KDE-Keywords[ru]": "timeout,iopref,netpref,network preferences,ftp,задержка,время ожидания,таймаут,параметры сети",
    "X-KDE-Keywords[sk]": "timeout,iopref,netpref,sieťové nastavenia,ftp",
    "X-KDE-Keywords[sl]": "časovna omejitev,iopref,netpref,možnosti omrežja,ftp",
    "X-KDE-Keywords[sr@ijekavian]": "timeout,iopref,netpref,network preferences,ftp,прековреме,мрежне поставке,ФТП",
    "X-KDE-Keywords[sr@ijekavianlatin]": "timeout,iopref,netpref,network preferences,ftp,prekovreme,mrežne postavke,FTP",
    "X-KDE-Keywords[sr@latin]": "timeout,iopref,netpref,network preferences,ftp,prekovreme,mrežne postavke,FTP",
    "X-KDE-Keywords[sr]": "timeout,iopref,netpref,network preferences,ftp,прековреме,мрежне поставке,ФТП",
    "X-KDE-Keywords[sv]": "tidsgräns,iopref,netpref,nätverk,inställningar,ftp",
    "X-KDE-Keywords[ta]": "timeout,iopref,netpref,network preferences,ftp,காலாவதி,பிணைய விருப்பத்தேர்வுகள்,இணைய விருப்பத்தேர்வுகள்",
    "X-KDE-Keywords[tg]": "анҷоми вақти интизорӣ,iopref,хусусиятҳои интернет,хусусиятҳои шабака,ftp",
    "X-KDE-Keywords[tok]": "kulupu ilo,linja,tenpo suli,ftp,linluwi",
    "X-KDE-Keywords[tr]": "zaman aşımı,girdi çıktı tercihleri,ağ tercihleri,ağ ayarları,ftp",
    "X-KDE-Keywords[uk]": "timeout,iopref,netpref,network preferences,ftp,очікування,тайм-аут,мережа,параметри,налаштування",
    "X-KDE-Keywords[vi]": "timeout,iopref,netpref,network preferences,ftp,thời hạn,các thiết lập mạng",
    "X-KDE-Keywords[x-test]": "xxtimeoutxx,xxioprefxx,xxnetprefxx,xxnetwork preferencesxx,xxftpxx",
    "X-KDE-Keywords[zh_CN]": "timeout,iopref,netpref,network preferences,ftp,超时,网络首选项",
    "X-KDE-Keywords[zh_TW]": "timeout,iopref,netpref,network preferences,ftp",
    "X-KDE-ParentApp": "kcontrol",
    "X-KDE-System-Settings-Parent-Category": "networksettings",
    "X-KDE-Weight": 50
}
